tx_rollup_client_submit_batch_invalid_rollup_address.jakarta.out

./tezos-client --wait none submit tx rollup batch 0x to 'this is an invalid tx rollup address' from '[PUBLIC_KEY_HASH]'
Error:
  Erroneous command line argument 7 (this is an invalid tx rollup address).
  Parameter 'this is an invalid tx rollup address' is an invalid transaction rollup address encoded in a base58 string.

Usage:
  tezos-client [global options] command [command options]
  tezos-client --help (for global options)
  tezos-client [global options] command --help (for command options)
  tezos-client --version (for version information)

To browse the documentation:
  tezos-client [global options] man (for a list of commands)
  tezos-client [global options] man -v 3 (for the full manual)

Global options (must come before the command):
  -d --base-dir <path>: client data directory (absent: TEZOS_CLIENT_DIR env)
  -c --config-file <path>: configuration file
  -t --timings: show RPC request times
  --chain <hash|tag>: chain on which to apply contextual commands (commands dependent on the context associated with the specified chain). Possible tags are 'main' and 'test'.
  -b --block <hash|level|tag>: block on which to apply contextual commands (commands dependent on the context associated with the specified block). Possible tags include 'head' and 'genesis' +/- an optional offset (e.g. "tezos-client -b head-1 get timestamp"). Note that block queried must exist in node's storage.
  -w --wait <none|<int>>: how many confirmation blocks are needed before an operation is considered included
  -p --protocol <hash>: use commands of a specific protocol
  -l --log-requests: log all requests to the node
  --better-errors: Error reporting is more detailed. Can be used if a call to an RPC fails or if you don't know the input accepted by the RPC. It may happen that the RPC calls take more time however.
  -A --addr <IP addr|host>: [DEPRECATED: use --endpoint instead] IP address of the node
  -P --port <number>: [DEPRECATED: use --endpoint instead] RPC port of the node
  -S --tls: [DEPRECATED: use --endpoint instead] use TLS to connect to node.
  -m --media-type <json, binary, any or default>: Sets the "media-type" value for the "accept" header for RPC requests to the node. The media accept header indicates to the node which format of data serialisation is supported. Use the value "json" for serialisation to the JSON format.
  -E --endpoint <uri>: HTTP(S) endpoint of the node RPC interface; e.g. 'http://localhost:8732'
  -s --sources <path>: path to JSON file containing sources for --mode light. Example file content: {"min_agreement": 1.0, "uris": ["http://localhost:8732", "https://localhost:8733"]}
  -R --remote-signer <uri>: URI of the remote signer
  -f --password-filename <filename>: path to the password filename
  -M --mode <client|light|mockup|proxy>: how to interact with the node
